{
  "todos": [
    {
      "id": 1590959245698,
      "title": "Online one",
      "description": "Online one",
      "synced": "true",
      "updated": "false",
      "done": "true",
      "deleted": "false",
      "date": 1590959245698
    },
    {
      "id": 1590959258971,
      "title": "Online three",
      "description": "Online three",
      "synced": "true",
      "updated": "false",
      "done": "false",
      "deleted": "false",
      "date": 1590959258971
    }
  ]
}